{
    "type": "FeatureCollection",
    "features": [
        {
            "type": "Feature",
            "geometry": {
                "coordinates": [
                    [
                        1.431780303223158,
                        43.58930245604974
                    ]
                ],
                "type": "MultiPoint"
            },
            "properties": {
                "geo_point_2d": {
                    "lon": 1.4317803032231584,
                    "lat": 43.58930245604974
                },
                "infobulle": "AVENUE DE MURET - MARCEL CAVAILLE\nligne T1",
                "nom": "AVENUE DE MURET - MARCEL CAVAILLE",
                "ligne": "T1",
                "type": "Tramway",
                "en_service": 2013,
                "couvert": "A\u00e9rien",
                "etiquette": "Avenue de Muret-Marcel Cavaill\u00e9",
                "commune": "TOULOUSE"
            }
        },
        {
            "type": "Feature",
            "geometry": {
                "coordinates": [
                    [
                        1.444036112161924,
                        43.592744550846625
                    ]
                ],
                "type": "MultiPoint"
            },
            "properties": {
                "geo_point_2d": {
                    "lon": 1.4440361121619238,
                    "lat": 43.592744550846625
                },
                "infobulle": "PALAIS DE JUSTICE\nligne T1",
                "nom": "PALAIS DE JUSTICE",
                "ligne": "T1",
                "type": "Tramway",
                "en_service": 2013,
                "couvert": "A\u00e9rien",
                "etiquette": "Palais de justice",
                "commune": "TOULOUSE"
            }
        },
        {
            "type": "Feature",
            "geometry": {
                "coordinates": [
                    [
                        1.374375060591012,
                        43.63134028147687
                    ]
                ],
                "type": "MultiPoint"
            },
            "properties": {
                "geo_point_2d": {
                    "lon": 1.3743750605910123,
                    "lat": 43.63134028147687
                },
                "infobulle": "AEROPORT\nligne T2",
                "nom": "AEROPORT",
                "ligne": "T2",
                "type": "Tramway",
                "en_service": 2015,
                "couvert": "A\u00e9rien",
                "etiquette": "A\u00e9roport",
                "commune": "BLAGNAC"
            }
        },
        {
            "type": "Feature",
            "geometry": {
                "coordinates": [
                    [
                        1.359943450559882,
                        43.66764678464159
                    ]
                ],
                "type": "MultiPoint"
            },
            "properties": {
                "geo_point_2d": {
                    "lon": 1.3599434505598815,
                    "lat": 43.66764678464159
                },
                "infobulle": "PARC DES EXPOSITIONS\nligne T1",
                "nom": "PARC DES EXPOSITIONS",
                "ligne": "T1",
                "type": "Tramway",
                "en_service": 2020,
                "couvert": "A\u00e9rien",
                "etiquette": "Parc des Expositions",
                "commune": "BEAUZELLE"
            }
        },
        {
            "type": "Feature",
            "geometry": {
                "coordinates": [
                    [
                        1.375641977702061,
                        43.64853137755017
                    ]
                ],
                "type": "MultiPoint"
            },
            "properties": {
                "geo_point_2d": {
                    "lon": 1.375641977702061,
                    "lat": 43.64853137755017
                },
                "infobulle": "PLACE GEORGES BRASSENS\nligne T1",
                "nom": "PLACE GEORGES BRASSENS",
                "ligne": "T1",
                "type": "Tramway",
                "en_service": 2010,
                "couvert": "A\u00e9rien",
                "etiquette": "Place Georges Brassens",
                "commune": "BLAGNAC"
            }
        },
        {
            "type": "Feature",
            "geometry": {
                "coordinates": [
                    [
                        1.409430770561109,
                        43.59488281564637
                    ]
                ],
                "type": "MultiPoint"
            },
            "properties": {
                "geo_point_2d": {
                    "lon": 1.4094307705611087,
                    "lat": 43.59488281564637
                },
                "infobulle": "HIPPODROME\nligne T1",
                "nom": "HIPPODROME",
                "ligne": "T1",
                "type": "Tramway",
                "en_service": 2010,
                "couvert": "A\u00e9rien",
                "etiquette": "Hippodrome",
                "commune": "TOULOUSE"
            }
        },
        {
            "type": "Feature",
            "geometry": {
                "coordinates": [
                    [
                        1.417940308001022,
                        43.59282790479078
                    ]
                ],
                "type": "MultiPoint"
            },
            "properties": {
                "geo_point_2d": {
                    "lon": 1.4179403080010222,
                    "lat": 43.59282790479078
                },
                "infobulle": "ARENES\nligne T1",
                "nom": "ARENES",
                "ligne": "T1",
                "type": "Tramway",
                "en_service": 2010,
                "couvert": "A\u00e9rien",
                "etiquette": "Ar\u00e8nes",
                "commune": "TOULOUSE"
            }
        },
        {
            "type": "Feature",
            "geometry": {
                "coordinates": [
                    [
                        1.421597493275833,
                        43.5896899913399
                    ]
                ],
                "type": "MultiPoint"
            },
            "properties": {
                "geo_point_2d": {
                    "lon": 1.421597493275833,
                    "lat": 43.5896899913399
                },
                "infobulle": "DEODAT DE SEVERAC\nligne T1",
                "nom": "DEODAT DE SEVERAC",
                "ligne": "T1",
                "type": "Tramway",
                "en_service": 2013,
                "couvert": "A\u00e9rien",
                "etiquette": "D\u00e9odat de S\u00e9verac",
                "commune": "TOULOUSE"
            }
        },
        {
            "type": "Feature",
            "geometry": {
                "coordinates": [
                    [
                        1.38676172502025,
                        43.62438397124793
                    ]
                ],
                "type": "MultiPoint"
            },
            "properties": {
                "geo_point_2d": {
                    "lon": 1.3867617250202497,
                    "lat": 43.62438397124793
                },
                "infobulle": "NADOT\nligne T2",
                "nom": "NADOT",
                "ligne": "T2",
                "type": "Tramway",
                "en_service": 2015,
                "couvert": "A\u00e9rien",
                "etiquette": "Nadot",
                "commune": "BLAGNAC"
            }
        },
        {
            "type": "Feature",
            "geometry": {
                "coordinates": [
                    [
                        1.377463924925277,
                        43.644754167912254
                    ]
                ],
                "type": "MultiPoint"
            },
            "properties": {
                "geo_point_2d": {
                    "lon": 1.3774639249252767,
                    "lat": 43.644754167912254
                },
                "infobulle": "GRAND NOBLE\nligne T1",
                "nom": "GRAND NOBLE",
                "ligne": "T1",
                "type": "Tramway",
                "en_service": 2010,
                "couvert": "A\u00e9rien",
                "etiquette": "Grand Noble",
                "commune": "BLAGNAC"
            }
        },
        {
            "type": "Feature",
            "geometry": {
                "coordinates": [
                    [
                        1.385341807222508,
                        43.636243935393175
                    ]
                ],
                "type": "MultiPoint"
            },
            "properties": {
                "geo_point_2d": {
                    "lon": 1.3853418072225077,
                    "lat": 43.636243935393175
                },
                "infobulle": "ODYSSUD RITOURET\nligne T1",
                "nom": "ODYSSUD RITOURET",
                "ligne": "T1",
                "type": "Tramway",
                "en_service": 2010,
                "couvert": "A\u00e9rien",
                "etiquette": "Odyssud-Ritouret",
                "commune": "BLAGNAC"
            }
        },
        {
            "type": "Feature",
            "geometry": {
                "coordinates": [
                    [
                        1.390062370823038,
                        43.63675043507753
                    ]
                ],
                "type": "MultiPoint"
            },
            "properties": {
                "geo_point_2d": {
                    "lon": 1.3900623708230377,
                    "lat": 43.63675043507753
                },
                "infobulle": "PLACE DU RELAIS\nligne T1",
                "nom": "PLACE DU RELAIS",
                "ligne": "T1",
                "type": "Tramway",
                "en_service": 2010,
                "couvert": "A\u00e9rien",
                "etiquette": "Place du Relais",
                "commune": "BLAGNAC"
            }
        },
        {
            "type": "Feature",
            "geometry": {
                "coordinates": [
                    [
                        1.393478881706319,
                        43.62548540461833
                    ]
                ],
                "type": "MultiPoint"
            },
            "properties": {
                "geo_point_2d": {
                    "lon": 1.3934788817063193,
                    "lat": 43.62548540461833
                },
                "infobulle": "SERVANTY AIRBUS\nligne T1",
                "nom": "SERVANTY AIRBUS",
                "ligne": "T1",
                "type": "Tramway",
                "en_service": 2010,
                "couvert": "A\u00e9rien",
                "etiquette": "Servanty-Airbus",
                "commune": "BLAGNAC"
            }
        },
        {
            "type": "Feature",
            "geometry": {
                "coordinates": [
                    [
                        1.398309385940387,
                        43.614084691299624
                    ]
                ],
                "type": "MultiPoint"
            },
            "properties": {
                "geo_point_2d": {
                    "lon": 1.3983093859403866,
                    "lat": 43.614084691299624
                },
                "infobulle": "ARENES ROMAINES\nligne T1",
                "nom": "ARENES ROMAINES",
                "ligne": "T1",
                "type": "Tramway",
                "en_service": 2010,
                "couvert": "A\u00e9rien",
                "etiquette": "Ar\u00e8nes Romaines",
                "commune": "TOULOUSE"
            }
        },
        {
            "type": "Feature",
            "geometry": {
                "coordinates": [
                    [
                        1.411385934553249,
                        43.6008514844726
                    ]
                ],
                "type": "MultiPoint"
            },
            "properties": {
                "geo_point_2d": {
                    "lon": 1.411385934553249,
                    "lat": 43.6008514844726
                },
                "infobulle": "ZENITH\nligne T1",
                "nom": "ZENITH",
                "ligne": "T1",
                "type": "Tramway",
                "en_service": 2010,
                "couvert": "A\u00e9rien",
                "etiquette": "Z\u00e9nith",
                "commune": "TOULOUSE"
            }
        },
        {
            "type": "Feature",
            "geometry": {
                "coordinates": [
                    [
                        1.435499384949513,
                        43.592625349649396
                    ]
                ],
                "type": "MultiPoint"
            },
            "properties": {
                "geo_point_2d": {
                    "lon": 1.4354993849495135,
                    "lat": 43.592625349649396
                },
                "infobulle": "FER A CHEVAL\nligne T1",
                "nom": "FER A CHEVAL",
                "ligne": "T1",
                "type": "Tramway",
                "en_service": 2013,
                "couvert": "A\u00e9rien",
                "etiquette": "Fer \u00e0 cheval",
                "commune": "TOULOUSE"
            }
        },
        {
            "type": "Feature",
            "geometry": {
                "coordinates": [
                    [
                        1.373582581052039,
                        43.65482367917507
                    ]
                ],
                "type": "MultiPoint"
            },
            "properties": {
                "geo_point_2d": {
                    "lon": 1.3735825810520388,
                    "lat": 43.65482367917507
                },
                "infobulle": "ANDROMEDE LYCEE\nligne T1",
                "nom": "ANDROMEDE LYCEE",
                "ligne": "T1",
                "type": "Tramway",
                "en_service": 2010,
                "couvert": "A\u00e9rien",
                "etiquette": "Androm\u00e8de-Lyc\u00e9e",
                "commune": "BLAGNAC"
            }
        },
        {
            "type": "Feature",
            "geometry": {
                "coordinates": [
                    [
                        1.382557083334688,
                        43.64050780714941
                    ]
                ],
                "type": "MultiPoint"
            },
            "properties": {
                "geo_point_2d": {
                    "lon": 1.3825570833346879,
                    "lat": 43.64050780714941
                },
                "infobulle": "PATINOIRE BARRADELS\nligne T1",
                "nom": "PATINOIRE BARRADELS",
                "ligne": "T1",
                "type": "Tramway",
                "en_service": 2010,
                "couvert": "A\u00e9rien",
                "etiquette": "Patinoire-Barradels",
                "commune": "BLAGNAC"
            }
        },
        {
            "type": "Feature",
            "geometry": {
                "coordinates": [
                    [
                        1.391736612612785,
                        43.630865024117426
                    ]
                ],
                "type": "MultiPoint"
            },
            "properties": {
                "geo_point_2d": {
                    "lon": 1.3917366126127853,
                    "lat": 43.630865024117426
                },
                "infobulle": "GUYENNE BERRY\nligne T1",
                "nom": "GUYENNE BERRY",
                "ligne": "T1",
                "type": "Tramway",
                "en_service": 2010,
                "couvert": "A\u00e9rien",
                "etiquette": "Guyenne-Berry",
                "commune": "BLAGNAC"
            }
        },
        {
            "type": "Feature",
            "geometry": {
                "coordinates": [
                    [
                        1.402001744875977,
                        43.609107245760164
                    ]
                ],
                "type": "MultiPoint"
            },
            "properties": {
                "geo_point_2d": {
                    "lon": 1.402001744875977,
                    "lat": 43.609107245760164
                },
                "infobulle": "PURPAN\nligne T1",
                "nom": "PURPAN",
                "ligne": "T1",
                "type": "Tramway",
                "en_service": 2010,
                "couvert": "A\u00e9rien",
                "etiquette": "Purpan",
                "commune": "TOULOUSE"
            }
        },
        {
            "type": "Feature",
            "geometry": {
                "coordinates": [
                    [
                        1.407676393256462,
                        43.60312658606025
                    ]
                ],
                "type": "MultiPoint"
            },
            "properties": {
                "geo_point_2d": {
                    "lon": 1.407676393256462,
                    "lat": 43.60312658606025
                },
                "infobulle": "CARTOUCHERIE\nligne T1",
                "nom": "CARTOUCHERIE",
                "ligne": "T1",
                "type": "Tramway",
                "en_service": 2010,
                "couvert": "A\u00e9rien",
                "etiquette": "Cartoucherie",
                "commune": "TOULOUSE"
            }
        },
        {
            "type": "Feature",
            "geometry": {
                "coordinates": [
                    [
                        1.427813515462636,
                        43.58564645360405
                    ]
                ],
                "type": "MultiPoint"
            },
            "properties": {
                "geo_point_2d": {
                    "lon": 1.427813515462636,
                    "lat": 43.58564645360405
                },
                "infobulle": "CROIX DE PIERRE\nligne T1",
                "nom": "CROIX DE PIERRE",
                "ligne": "T1",
                "type": "Tramway",
                "en_service": 2013,
                "couvert": "A\u00e9rien",
                "etiquette": "Croix de Pierre",
                "commune": "TOULOUSE"
            }
        },
        {
            "type": "Feature",
            "geometry": {
                "coordinates": [
                    [
                        1.379372704010621,
                        43.62884803957818
                    ]
                ],
                "type": "MultiPoint"
            },
            "properties": {
                "geo_point_2d": {
                    "lon": 1.3793727040106212,
                    "lat": 43.62884803957818
                },
                "infobulle": "DAURAT\nligne T2",
                "nom": "DAURAT",
                "ligne": "T2",
                "type": "Tramway",
                "en_service": 2015,
                "couvert": "A\u00e9rien",
                "etiquette": "Daurat",
                "commune": "BLAGNAC"
            }
        },
        {
            "type": "Feature",
            "geometry": {
                "coordinates": [
                    [
                        1.362606130011551,
                        43.663455662614005
                    ]
                ],
                "type": "MultiPoint"
            },
            "properties": {
                "geo_point_2d": {
                    "lon": 1.3626061300115513,
                    "lat": 43.663455662614005
                },
                "infobulle": "AEROCONSTELLATION\nligne T1",
                "nom": "AEROCONSTELLATION",
                "ligne": "T1",
                "type": "Tramway",
                "en_service": 2010,
                "couvert": "A\u00e9rien",
                "etiquette": "A\u00e9roconstellation",
                "commune": "BLAGNAC"
            }
        },
        {
            "type": "Feature",
            "geometry": {
                "coordinates": [
                    [
                        1.36950733519988,
                        43.66025518959788
                    ]
                ],
                "type": "MultiPoint"
            },
            "properties": {
                "geo_point_2d": {
                    "lon": 1.36950733519988,
                    "lat": 43.66025518959788
                },
                "infobulle": "BEAUZELLE - AEROSCOPIA\nligne T1",
                "nom": "BEAUZELLE - AEROSCOPIA",
                "ligne": "T1",
                "type": "Tramway",
                "en_service": 2010,
                "couvert": "A\u00e9rien",
                "etiquette": "Beauzelle-A\u00e9roscopia",
                "commune": "BEAUZELLE"
            }
        },
        {
            "type": "Feature",
            "geometry": {
                "coordinates": [
                    [
                        1.391288326642886,
                        43.63431428630999
                    ]
                ],
                "type": "MultiPoint"
            },
            "properties": {
                "geo_point_2d": {
                    "lon": 1.391288326642886,
                    "lat": 43.63431428630999
                },
                "infobulle": "PASTEUR MAIRIE DE BLAGNAC\nligne T1",
                "nom": "PASTEUR MAIRIE DE BLAGNAC",
                "ligne": "T1",
                "type": "Tramway",
                "en_service": 2010,
                "couvert": "A\u00e9rien",
                "etiquette": "Pasteur-Mairie de Blagnac",
                "commune": "BLAGNAC"
            }
        },
        {
            "type": "Feature",
            "geometry": {
                "coordinates": [
                    [
                        1.396909959491359,
                        43.618220590999165
                    ]
                ],
                "type": "MultiPoint"
            },
            "properties": {
                "geo_point_2d": {
                    "lon": 1.3969099594913592,
                    "lat": 43.618220590999165
                },
                "infobulle": "ANCELY\nligne T1",
                "nom": "ANCELY",
                "ligne": "T1",
                "type": "Tramway",
                "en_service": 2010,
                "couvert": "A\u00e9rien",
                "etiquette": "Ancely",
                "commune": "TOULOUSE"
            }
        },
        {
            "type": "Feature",
            "geometry": {
                "coordinates": [
                    [
                        1.440423260842913,
                        43.59220355060642
                    ]
                ],
                "type": "MultiPoint"
            },
            "properties": {
                "geo_point_2d": {
                    "lon": 1.4404232608429135,
                    "lat": 43.59220355060642
                },
                "infobulle": "ILE DU RAMIER\nligne T1",
                "nom": "ILE DU RAMIER",
                "ligne": "T1",
                "type": "Tramway",
                "en_service": 2013,
                "couvert": "A\u00e9rien",
                "etiquette": "Ile du Ramier",
                "commune": "TOULOUSE"
            }
        }
    ]
}